…
```r
Sys.setlocale("LC_ALL","English")
library(tidyverse)
library(tidyquant)
library(leaflet)
library(feather)

aq <- read_feather("air_and_weather.feather") %>% 
        arrange(datetime)
```

Take a glance at the raw data as below! You can see there are over 40 different variables measure from different stations by an hourly basis. Unfortunately, most of the variables were missing, but luckily our main pollutants nitro oxides (NO<sub>x</sub>, NO<sub>2</sub>, NO) were monitored. 

```ruby=
# A tibble: 1,146,616 x 20
   `Date Time`           NOx   NO2    NO  PM10 SiteID NVPM10 VPM10 NVPM2.5 PM2.5 VPM2.5    CO    O3   SO2 Temperature RH    Location geo_point_2d
   <dttm>              <dbl> <dbl> <dbl> <dbl>  <dbl>  <dbl> <dbl>   <dbl> <dbl>  <dbl> <dbl> <dbl> <dbl> <lgl>       <lgl> <chr>    <chr>       
 1 2017-11-27 15:00:00  23.5  16.3  4.65   7.1    452    5.8   1.3     3.8   5.6    1.8    NA  64.8    NA NA          NA    AURN St… 51.46282815…
 2 2017-11-27 18:00:00  23.7  18.9  3.12   3.7    452    3     0.7     1.9   3.8    1.9    NA  62.3    NA NA          NA    AURN St… 51.46282815…
 3 2017-11-27 22:00:00  26.7  23.1  2.34  12.6    452   10     2.6     3.5   3.9    0.4    NA  48.7    NA NA          NA    AURN St… 51.46282815…
 4 2017-11-28 06:00:00  26.7  22.5  2.76   6      452    6     0       2.5   3.1    0.6    NA  50.9    NA NA          NA    AURN St… 51.46282815…
 5 2017-11-28 10:00:00  40.5  26.8  8.92   9.7    452    9.3   0.4     5.1   5.5    0.4    NA  46.7    NA NA          NA    AURN St… 51.46282815…
 6 2017-11-28 20:00:00  63.8  48.7  9.88  14.9    452   15.2  -0.3    10.6  10.7    0.1    NA  20.6    NA NA          NA    AURN St… 51.46282815…
 7 2017-11-28 21:00:00  50.0  39.2  7.05  10.1    452    8.6   1.5     5.2   4.4   -0.8    NA  27.8    NA NA          NA    AURN St… 51.46282815…
 8 2017-11-29 05:00:00  19.0  17.1  1.26   6.6    452    6.7  -0.1     2.4   2.2   -0.2    NA  46.4    NA NA          NA    AURN St… 51.46282815…
 9 2018-04-23 10:00:00  18.9  12.5  4.16  13.5    452    9.1   4.4     2.6   6.1    3.5    NA  87.1    NA NA          NA    AURN St… 51.46282815…
10 2018-04-23 15:00:00  14.7  10.2  2.95   7.9    452    5.4   2.5     2.3   3.5    1.2    NA  87.1    NA NA          NA    AURN St… 51.46282815…
# … with 1,146,606 more rows, and 2 more variables: DateStart <dttm>, DateEnd <dttm>
…
